Dataset Builder
…
(crosswalk <- crosswalk %>% st_set_geometry(NULL) %>% as_tibble())

## # A tibble: 312 x 4
##    TAZ   TRACT       PUMA  REGION
##    <chr> <chr>       <chr> <chr> 
##  1 2057  49049000204 49002 1     
##  2 2059  49049000205 49002 1     
##  3 2149  49049000205 49002 1     
##  4 2150  49049000205 49002 1     
##  5 2151  49049000206 49002 1     
##  6 2152  49049000206 49002 1     
##  7 2153  49049000206 49002 1     
##  8 2154  49049010700 49002 1     
##  9 2164  49049010700 49002 1     
## 10 2165  49049010213 49002 1     
## #  with 302 more rows
…
# read socioeconomic data file
(taz_control <- read_csv("inputs/SE_MAG_2020.csv") %>% 
  transmute(TAZ = as.character(TAZID), HHBASE = as.integer(ceiling(TOTHH))) %>% 
  filter(TAZ %in% crosswalk$TAZ))

## Parsed with column specification:
## cols(
##   .default = col_double(),
##   CO_NAME = col_character()
## )

## See spec(...) for full column specifications.

## # A tibble: 312 x 2
##    TAZ   HHBASE
##    <chr>  <int>
##  1 2057     336
##  2 2059     218
##  3 2149     470
##  4 2150     335
##  5 2151     473
##  6 2152     285
##  7 2153     285
##  8 2154     295
##  9 2164      84
## 10 2165     505
## #  with 302 more rows
…
Tract Controls File

When all of the controls have been gathered, we can put them into one large table.

(tract_controls <- tibble(TRACT = mytracts) %>%
   left_join(ages  %>% spread(agecat,  count), by = c("TRACT" = "GEOID")) %>%
   left_join(incs  %>% spread(inccat,  count), by = c("TRACT" = "GEOID")) %>%
   left_join(works %>% spread(workcat, count), by = c("TRACT" = "GEOID")) %>%
   left_join(sizes %>% spread(sizecat, count), by = c("TRACT" = "GEOID"))
)

## # A tibble: 68 x 18
##    TRACT PAGE0 PAGE1 PAGE2 PAGE3 PAGE4 HHINC1 HHINC2 HHINC3 HHINC4 HHWORK0
##    <chr> <int> <int> <int> <int> <int>  <int>  <int>  <int>  <int>   <int>
##  1 4904  2015   975  2371   568   539    468    341    589    406     301
##  2 4904  1308   627  1344   247   226    253    175    120    354     111
##  3 4904  1205   506  1231   309   345    266    152    178    288     121
##  4 4904  1388   861  1609   643   730    342    248    308    518     283
##  5 4904  1095   534   926   190   237    127    279     71    157      70
##  6 4904  1177   786  1712   301   578    438    322    448    276     341
##  7 4904  1222   704  1535   226   296    245    116    411    413     234
##  8 4904  1755   833  2811   325   557    637    425    880    490     348
##  9 4904  1167   633  1163   332   230    254    138    262    256     136
## 10 4904  2918  1787  2642   693   573    546    443    361    702     312
## #  with 58 more rows, and 7 more variables: HHWORK1 <int>, HHWORK2 <int>,
## #   HHWORK3 <int>, HHSIZE1 <int>, HHSIZE2 <int>, HHSIZE3 <int>,
## #   HHSIZE4 <int>
…
